<?xml version="1.0" standalone="no"?>
<!DOCTYPE svg PUBLIC "-//W3C//DTD SVG 1.1//EN" "http://www.w3.org/Graphics/SVG/1.1/DTD/svg11.dtd" >
<svg xmlns="http://www.w3.org/2000/svg">
<metadata>Generated by IcoMoon</metadata>
<defs>
<font id="icomoon" horiz-adv-x="1024">
<font-face units-per-em="1024" ascent="960" descent="-64" />
<missing-glyph horiz-adv-x="1024" />
<glyph unicode="&#x20;" horiz-adv-x="512" d="" />
<glyph unicode="&#xe900;" glyph-name="left-arrow" d="M1024 480.256h-900.517l73.955 73.955-45.614 45.614-151.824-151.824 151.824-151.826 45.614 45.614-73.955 73.957h900.517z" />
<glyph unicode="&#xe901;" glyph-name="right-arrow" d="M872.174 599.825l-45.612-45.614 73.955-73.955h-900.517v-64.509h900.517l-73.955-73.957 45.612-45.614 151.826 151.826z" />
<glyph unicode="&#xe902;" glyph-name="down-arrow" d="M618.211 133.438l-73.955-73.955v900.517h-64.509v-900.517l-73.957 73.955-45.614-45.612 151.826-151.826 151.824 151.826z" />
<glyph unicode="&#xe903;" glyph-name="up-arrow" d="M663.825 808.174l-151.824 151.826-151.826-151.826 45.614-45.614 73.957 73.955v-900.515h64.509v900.515l73.955-73.955z" />
<glyph unicode="&#xe904;" glyph-name="pinterest" d="M810.035 855.067c-70.486 67.666-168.031 104.933-274.665 104.933-162.889 0-263.073-66.771-318.432-122.781-68.227-69.026-107.351-160.679-107.351-251.464 0-113.986 47.678-201.474 127.52-234.022 5.36-2.196 10.754-3.303 16.041-3.303 16.844 0 30.19 11.021 34.814 28.7 2.695 10.143 8.94 35.164 11.655 46.026 5.813 21.451 1.116 31.769-11.559 46.707-23.092 27.323-33.846 59.633-33.846 101.683 0 124.901 93.004 257.646 265.378 257.646 136.771 0 221.733-77.735 221.733-202.868 0-78.964-17.009-152.092-47.902-205.923-21.468-37.403-59.217-81.989-117.17-81.989-25.061 0-47.572 10.294-61.777 28.241-13.419 16.966-17.841 38.883-12.445 61.724 6.097 25.807 14.41 52.727 22.455 78.753 14.674 47.532 28.545 92.426 28.545 128.244 0 61.265-37.664 102.43-93.714 102.43-71.232 0-127.038-72.349-127.038-164.709 0-45.296 12.038-79.175 17.488-92.185-8.973-38.021-62.305-264.060-72.421-306.685-5.849-24.882-41.086-221.409 17.237-237.081 65.529-17.607 124.102 173.798 130.063 195.427 4.832 17.59 21.738 84.103 32.099 124.99 31.633-30.471 82.567-51.070 132.128-51.070 93.43 0 177.454 42.043 236.595 118.378 57.358 74.040 88.948 177.236 88.948 290.564 0 88.598-38.047 175.941-104.378 239.63z" />
<glyph unicode="&#xe905;" glyph-name="facebook" d="M576 608v128c0 35.328 28.672 64 64 64h64v160h-128c-106.048 0-192-85.952-192-192v-160h-128v-160h128v-512h192v512h128l64 160h-192z" />
<glyph unicode="&#xe906;" glyph-name="instagram" d="M131.434 960h761.132c72.283 0 131.424-53.516 131.424-131.424v-761.153c0-77.908-59.141-131.424-131.424-131.424h-761.132c-72.304 0-131.434 53.516-131.434 131.424v761.153c0 77.908 59.13 131.424 131.434 131.424v0zM745.939 846.229c-25.359 0-46.082-20.733-46.082-46.103v-110.343c0-25.359 20.723-46.103 46.082-46.103h115.737c25.359 0 46.103 20.744 46.103 46.103v110.343c0 25.37-20.744 46.103-46.103 46.103h-115.737zM908.263 526.954h-90.125c8.527-27.841 13.142-57.332 13.142-87.844 0-170.325-142.526-308.393-318.308-308.393-175.771 0-318.276 138.068-318.276 308.393 0 30.532 4.605 60.013 13.142 87.844h-94.047v-432.552c0-22.384 18.315-40.71 40.71-40.71h713.073c22.395 0 40.71 18.315 40.71 40.71v432.552h-0.021zM512.962 649.493c-113.571 0-205.652-89.21-205.652-199.27s92.081-199.27 205.652-199.27c113.582 0 205.673 89.21 205.673 199.27s-92.081 199.27-205.673 199.27z" />
<glyph unicode="&#xe907;" glyph-name="behance" d="M421.283 478.723c21.25 10.689 37.315 22.594 48.324 35.459 19.586 23.17 29.25 53.892 29.25 91.976 0 37.059-9.665 68.742-28.994 95.304-32.259 43.268-86.855 65.413-164.045 66.565h-305.817v-624.243h285.143c32.131 0 61.893 2.752 89.415 8.385 27.522 5.696 51.332 16.129 71.494 31.363 17.921 13.249 32.899 29.698 44.804 49.092 18.818 29.314 28.226 62.533 28.226 99.528 0 35.843-8.257 66.373-24.642 91.464-16.577 25.090-40.899 43.46-73.158 55.109zM126.154 659.601h137.739c30.274 0 55.237-3.264 74.822-9.729 22.658-9.409 33.987-28.546 33.987-57.733 0-26.178-8.641-44.484-25.73-54.788-17.217-10.305-39.555-15.489-66.949-15.489h-153.869v137.739zM343.964 263.089c-15.233-7.361-36.675-11.009-64.133-11.009h-153.677v166.478h155.789c27.138-0.192 48.26-3.776 63.365-10.497 26.882-12.161 40.259-34.435 40.259-67.013 0-38.403-13.825-64.261-41.603-77.958zM654.39 738.904h271.19v-77.702h-271.19v77.702zM1019.796 432.255c-5.632 36.163-18.049 67.974-37.379 95.432-21.186 31.107-48.068 53.892-80.775 68.294-32.579 14.465-69.254 21.698-110.089 21.634-68.55 0-124.234-21.442-167.31-64.005-42.948-42.692-64.453-104.073-64.453-184.079 0-85.319 23.746-146.956 71.494-184.783 47.556-37.891 102.472-56.773 164.814-56.773 75.462 0 134.155 22.466 176.078 67.27 26.818 28.29 41.987 56.133 45.316 83.463h-124.938c-7.233-13.505-15.617-24.066-25.218-31.747-17.409-14.081-40.067-21.122-67.846-21.122-26.434 0-48.836 5.824-67.526 17.409-30.851 18.562-46.98 51.076-49.028 97.352h340.956c0.512 39.875-0.768 70.534-4.096 91.656zM686.008 420.286c4.48 30.018 15.361 53.828 32.643 71.43 17.281 17.537 41.731 26.37 73.030 26.434 28.866 0 52.996-8.257 72.646-24.834 19.394-16.705 30.338-40.963 32.579-73.030h-210.897z" />
<glyph unicode="&#xe908;" glyph-name="dribbble" d="M511.979 960c-282.775-0.021-511.979-229.239-511.979-512.021 0-282.732 229.204-511.976 511.979-511.976s511.988 229.244 512.019 511.976c-0.031 282.782-229.244 512-512.019 512.021zM825.687 694.533c49.955-63.435 81.233-141.983 85.178-227.761-57.8 12.268-112.411 18.239-163.324 18.239v0.012h-0.376c-40.989 0-79.457-3.721-115.714-10.151-8.811 21.596-17.744 42.339-26.743 62.206 80.745 35.416 158.248 85.845 220.978 157.455zM511.979 847.439c94.22 0 180.655-32.94 249.088-87.778-52.367-62.694-121.487-108.1-196.156-140.161-52.467 101.455-103.165 174.035-137.821 218.407 27.433 6.088 55.75 9.532 84.89 9.532zM335.544 805.799c27.726-32.749 83.238-104.784 142.528-217.25-120.582-35.894-242.005-44.327-315.472-44.306-2.095 0-4.166 0-6.199 0.021h-0.067c-12.373 0-23.012 0.195-31.895 0.467 28.662 114.69 107.233 209.674 211.105 261.067zM112.528 447.979c0 1.878 0.067 3.788 0.179 5.754 11.406-0.421 26.033-0.783 43.639-0.783h0.1c80.295 0.524 220.49 7.233 362.568 52.088 7.745-16.934 15.411-34.566 22.988-52.872-94.88-31.733-169.606-82.288-224.878-132.634-53.21-48.465-89.159-96.468-110.164-128.512-58.778 69.591-94.401 159.024-94.432 256.958zM511.979 48.511c-88.895 0-170.828 29.4-237.296 78.731 14.127 23.267 44.418 67.934 92.651 114.090 49.627 47.555 118.132 96.511 207.577 125.644 30.402-85.223 57.912-182.646 78.867-292.31-44.146-16.81-91.847-26.155-141.799-26.155zM738.056 119.443c-20.267 99.179-45.746 188.612-73.722 268.424 25.943 3.721 53.176 5.821 81.921 5.821h1.167c47.643 0 99.998-5.921 156.777-18.822-19.655-105.622-80.833-196.587-166.142-255.423z" />
<glyph unicode="&#xe909;" glyph-name="envelope" d="M0 776.017v-656.034h1024v656.034h-1024zM940.398 731.607l-428.382-357.017-428.446 357.017h856.827zM44.442 164.425v541.966l467.574-389.608 467.542 389.608v-541.998l-935.116 0.032z" />
</font></defs></svg>